t,x
0.000000,0.7919038904232317
0.000195,0.8470701131176883
0.000391,1.392923885263393
0.000586,0.9013803668234527
0.000781,1.0709747651118073
0.000977,1.1731419808511467
0.001172,0.9144301346143391
0.001367,0.9197132898523942
0.001563,0.6823489191526828
0.001758,1.6121323185300083
0.001953,1.1374636643681815
0.002148,0.2259504880507165
0.002344,0.7885308000591914
0.002539,1.0526354882213378
0.002734,0.395272778256635
0.002930,0.7146114484939563
0.003125,1.284669920629622
0.003320,1.098972804444744
0.003516,0.5600172496959599
0.003711,0.9633068084091176
0.003906,0.7685652722252562
0.004102,0.588846770598525
0.004297,0.7885115619250352
0.004492,0.3866195916721018
0.004688,1.0349611695330199
0.004883,0.8278619457863694
0.005078,2.6079454909952546
0.005273,1.6093654246752767
0.005469,0.779126060423542
0.005664,0.3350170962871135
0.005859,0.5331508386768686
0.006055,1.1142716189053563
0.006250,0.0735294137230179
0.006445,2.009403073950253
0.006641,0.8837415276274262
0.006836,1.0956393140769587
0.007031,0.7721765907872082
0.007227,1.5085006428027907
0.007422,0.6344009281120302
0.007617,0.9903533733652274
0.007812,0.5003243057563872
0.008008,0.523846418642969
0.008203,1.6583575817604077
0.008398,1.3344991473225485
0.008594,0.2931665214876661
0.008789,0.6131125308388583
0.008984,0.466866413907881
0.009180,1.2689002658250887
0.009375,1.2344322399377559
0.009570,1.6827027983894705
0.009766,0.9371192014304681
0.009961,0.5087911974010607
0.010156,0.677336658032532
0.010352,1.296419465724574
0.010547,0.5601729469080434
0.010742,1.3073906420763342
0.010938,1.6338057395067218
0.011133,0.4423128153608433
0.011328,1.221069670502449
0.011523,0.7775816713511294
0.011719,0.2325075202106311
0.011914,2.1899686770767803
0.012109,1.598987668694339
0.012305,2.029197055241803
0.012500,1.4401452936674204
0.012695,2.177073967636641
0.012891,1.3340423383914413
0.013086,1.4732233856217327
0.013281,0.5396570592201575
0.013477,-0.016543451148432
0.013672,0.5591171828118541
0.013867,0.4725913779360738
0.014063,0.567162141503603
0.014258,0.561516581456515
0.014453,0.8449851519059028
0.014648,0.8582079334302903
0.014844,0.7039912226072887
0.015039,0.8630209843515688
0.015234,1.0011903528024375
0.015430,0.8686876647682523
0.015625,0.7548535199680966
0.015820,1.8691676084321485
0.016016,1.2810575667465633
0.016211,1.9030142167114081
0.016406,1.3418464695936623
0.016602,0.8497214761530469
0.016797,1.0392959053482618
0.016992,1.649002864550646
0.017188,-0.099948977226583
0.017383,1.427420177294911
0.017578,1.0662787284930264
0.017773,0.4224195182448906
0.017969,1.3874947909077353
0.018164,0.3237995219683552
0.018359,1.1954915886610231
0.018555,1.3403034766059738
0.018750,1.0267552167037641
0.018945,0.4585204355835564
0.019141,1.5854845558728439
0.019336,0.4636277452993408
0.019531,0.609122903119351
0.019727,1.036510734625705
0.019922,1.534623418913211
0.020117,0.6225090978309196
0.020313,1.1293559484257893
0.020508,0.8245364966454922
0.020703,0.0650006830064291
0.020898,1.6587235461973087
0.021094,2.0506716172440234
0.021289,0.8450938412161679
0.021484,1.4489707668999525
0.021680,0.3152391820149043
0.021875,1.1762691702714565
0.022070,2.197585460963171
0.022266,0.9456005385928119
0.022461,1.8130603401462362
0.022656,1.6343180748625148
0.022852,-0.257707123939785
0.023047,1.6586683774755469
0.023242,1.4939039527566875
0.023437,1.3862760117698296
0.023633,1.4915549300075026
0.023828,0.7132767535947755
0.024023,0.0196551230504344
0.024219,1.2897727367250151
0.024414,1.0605939242497606
0.024609,1.672852443255365
0.024805,0.4172742512633115
0.025000,-0.091394932844501
0.025195,1.1203538285682968
0.025391,0.767777751570101
0.025586,1.8365994760703015
0.025781,-0.008732519191468
0.025977,0.5892103888589129
0.026172,0.6512122084104731
0.026367,1.4960933321832282
0.026563,1.2129627900753852
0.026758,1.4390992580855153
0.026953,0.4703175614395966
0.027148,0.8273426493239477
0.027344,0.4822020193293016
0.027539,0.877791918235925
0.027734,0.4236563951620855
0.027930,0.8381442524182201
0.028125,1.0357005996013307
0.028320,1.1934345017082608
0.028516,1.262843840009478
0.028711,0.9324279621792619
0.028906,1.3969334520293868
0.029102,0.7893387923454828
0.029297,1.3410759491798108
0.029492,1.8609870181734016
0.029688,1.6494580119635285
0.029883,1.3034778870949988
0.030078,1.6038375080066662
0.030273,1.4261271386874785
0.030469,0.9736438115976492
0.030664,0.2180061117516765
0.030859,0.4494249087962563
0.031055,0.1614122437794164
0.031250,1.5702689295858394
0.031445,1.5017254139178104
0.031641,2.0706258772244617
0.031836,0.6843202120235792
0.032031,0.9898736564576879
0.032227,1.524348880694672
0.032422,1.3281355593315889
0.032617,0.968834403521292
0.032813,1.0028272245145446
0.033008,0.99672836393456
0.033203,1.2506040022184117
0.033398,0.6000760838914081
0.033594,0.7934730907338314
0.033789,0.8173804106966159
0.033984,0.7580282454365197
0.034180,0.9422583131996248
0.034375,0.5550009057590795
0.034570,1.7023504487019943
0.034766,1.0311061663251597
0.034961,0.946212872081513
0.035156,0.7414515668098056
0.035352,0.7596980203082435
0.035547,1.4915432197108114
0.035742,1.0069310792817565
0.035938,1.9182800884966293
0.036133,1.1605795883962358
0.036328,0.9576795362899795
0.036523,0.604182658854265
0.036719,0.4732835779044058
0.036914,0.5252633113203105
0.037109,0.7077037907351701
0.037305,1.4048889862235205
0.037500,1.323695865330774
0.037695,1.0827116334077225
0.037891,0.8978031518267596
0.038086,1.4025402105824782
0.038281,1.3731647144051515
0.038477,0.8132827937926297
0.038672,1.447980994214573
0.038867,1.2219283014497337