t,x
0.000000,4.291116930399481      
0.000195,1.6358084064956562     
0.000391,4.346501498244285      
0.000586,2.3235991828408604     
0.000781,2.2980860959825975     
0.000977,3.7559084769543767     
0.001172,3.7571283478668085     
0.001367,2.98873952917523       
0.001563,3.5754744239764262     
0.001758,3.2646240341099926     
0.001953,3.466424596248133      
0.002148,2.8240173409926665     
0.002344,3.61622279006086       
0.002539,3.369919121101381      
0.002734,0.861786596947689      
0.002930,3.2828654884851654     
0.003125,0.7649462109244465     
0.003320,2.8079747184425505     
0.003516,2.2150290208420538     
0.003711,2.963232044199156      
0.003906,3.942087839634009      
0.004102,4.182358359883299      
0.004297,4.39610955913802       
0.004492,4.165160671929527      
0.004688,2.449749142462262      
0.004883,3.662508272237513      
0.005078,4.044819622334607      
0.005273,2.772924963400384      
0.005469,2.988779752013552      
0.005664,4.674109108237958      
0.005859,2.8900921525784855     
0.006055,5.34943054702428       
0.006250,2.434753235006207      
0.006445,2.2436452744911835     
0.006641,2.460255397717176      
0.006836,3.402910320008216      
0.007031,3.7219619280724374     
0.007227,2.313886357414452      
0.007422,4.532313317594944      
0.007617,2.6449701120731746     
0.007812,4.504402639443464      
0.008008,3.5853996436431372     
0.008203,1.336033929082793      
0.008398,2.5806673694038813     
0.008594,1.8248622298861739     
0.008789,3.4605155089561355     
0.008984,3.030218975463018      
0.009180,2.9997299278855545     
0.009375,2.1875612609785153     
0.009570,3.9421406715320737     
0.009766,5.086677127320643      
0.009961,2.7344579827624482     
0.010156,2.41305922622396       
0.010352,4.397993115651376      
0.010547,2.989384791229539      
0.010742,4.83659758843189       
0.010938,2.2282234210531096     
0.011133,2.5237097022382473     
0.011328,0.9109372454340723     
0.011523,3.774307166354701      
0.011719,3.860459520260862      
0.011914,3.1644290053877198     
0.012109,2.6529620838721604     
0.012305,3.305861802811288      
0.012500,2.7574200235098574     
0.012695,4.588563872003423      
0.012891,1.2861259078444427     
0.013086,4.248296619123792      
0.013281,3.9093399416145806     
0.013477,2.9032768763848895     
0.013672,2.738547736300989      
0.013867,3.808113870433853      
0.014063,3.952897493695605      
0.014258,2.389078683412748      
0.014453,4.168221712515739      
0.014648,2.6341673110482557     
0.014844,3.111255935972381      
0.015039,4.217567470452696      
0.015234,1.8646111964589238     
0.015430,2.5499073963749597     
0.015625,2.53894477997794       
0.015820,3.565021029540577      
0.016016,3.3436320228931096     
0.016211,1.7784868558965823     
0.016406,3.169481207726803      
0.016602,3.084379153967908      
0.016797,3.064230547208608      
0.016992,1.7866352811786732     
0.017188,3.048898337276726      
0.017383,3.8900923457545806     
0.017578,1.0013952385986062     
0.017773,1.660585508548833      
0.017969,2.722405052328719      
0.018164,0.4959508589809518     
0.018359,2.9589488292640347     
0.018555,4.160874261316621      
0.018750,3.986269676530369      
0.018945,1.5390855031888095     
0.019141,3.456715906182314      
0.019336,2.7121067969130173     
0.019531,3.8503682202230265     
0.019727,4.625337280185357      
0.019922,1.6925590626291604     
0.020117,3.3666629969064386     
0.020313,0.6711731202422917     
0.020508,2.9530902233506895     
0.020703,2.466551759843245      
0.020898,1.1576888970366246     
0.021094,4.594865552243338      
0.021289,4.119725461763407      
0.021484,1.3753347261717168     
0.021680,2.850212668330884      
0.021875,3.307096495724377      
0.022070,2.8558837187037533     
0.022266,3.492969328974211      
0.022461,2.3696735104398927     
0.022656,2.8665749443902873     
0.022852,2.897625015997709      
0.023047,2.878815855188908      
0.023242,2.9170215111453466     
0.023437,3.787600392288449      
0.023633,4.87632904991176       
0.023828,2.3719307806545658     
0.024023,3.2885450056991865     
0.024219,3.579108286475768      
0.024414,3.1435046143645327     
0.024609,3.463913832685953      
0.024805,2.1746917584842635     
0.025000,3.722418290084105      
0.025195,3.158923299736739      
0.025391,0.8854517977754499     
0.025586,3.700339802678373      
0.025781,1.9272825070544874     
0.025977,3.309219696834702      
0.026172,3.5396000204773066     
0.026367,1.9178258002796638     
0.026563,3.7095713396813395     
0.026758,3.317879027821111      
0.026953,3.360126681156282      
0.027148,2.620813551039765      
0.027344,2.3419295669514284     
0.027539,4.667225968984477      
0.027734,2.4159761255755883     
0.027930,3.35276948012966       
0.028125,4.525709705352093      
0.028320,3.03242679590441       
0.028516,2.5491092016317887     
0.028711,5.141141661702521      
0.028906,2.0183096383182155     
0.029102,4.392872143125704      
0.029297,1.1766890328450597     
0.029492,2.8853984800727246     
0.029688,2.517573064279913      
0.029883,3.307785625596493      
0.030078,2.2999636636593266     
0.030273,4.5728246148961915     
0.030469,2.3592035592606972     
0.030664,4.716544397549934      
0.030859,3.504802481308381      
0.031055,2.0576773645685824     
0.031250,2.1144594720814194     
0.031445,2.637234371804172      
0.031641,3.2391725147475063     
0.031836,3.515817860097995      
0.032031,2.4181421135737073     
0.032227,3.118014455403376      
0.032422,4.814435350952635      
0.032617,2.1601358363746668     
0.032813,4.44395662570944       
0.033008,1.7143732648946188     
0.033203,3.27681223646759       
0.033398,3.113834279629373      
0.033594,2.942183093229341      
0.033789,4.504872385012687      
0.033984,3.239238262166649      
0.034180,4.190786110301698      
0.034375,3.5181413114295914     
0.034570,2.793403110529473      
0.034766,3.9985981546900877     
0.034961,2.601761276079137      
0.035156,2.1396031255665964     
0.035352,2.361494236216593      
0.035547,3.868134827422662      
0.035742,3.3007152304460803     
0.035938,2.7400130320514555     
0.036133,2.9125774394978774     
0.036328,4.016846752166645      
0.036523,2.4454680650088703     
0.036719,1.6660717462341235     
0.036914,2.4876067165405176     
0.037109,2.601780767352398      
0.037305,1.2889651078257862     
0.037500,2.419103203496862      
0.037695,2.9484344352813503     
0.037891,2.740238458109061      
0.038086,1.788741964642973      
0.038281,3.373269518335257      
0.038477,1.2847855925111598     
0.038672,2.257625625137414      
0.038867,2.467263148246624