
la SVM
______
[split file: load:banana.all.txt binary:0 new_indices:1 new_labels:0]
loading "banana.all.txt"..  
examples: 4000   features: 2
set cache size 256
..0..100..200..300..400..500..600..700..800..900..1000..1100..1200..1300..1400..1500..1600..1700..1800..1900..2000..2100..2200..2300..2400..2500..2600..2700..2800..2900..3000..3100..3200..3300..3400..3500..3600..3700..3800..3900..[finishing]
nSVs=871
||w||^2=268344
kcalcs=7105132

la test
_______
loading model: 871 svs
[split file: load:banana.all.txt binary:0 new_indices:1 new_labels:0]
loading "banana.all.txt"..  
examples: 1300   features: 2
accuracy= 90 (1170/1300)

la SVM
______
[split file: load:banana.all.txt binary:0 new_indices:1 new_labels:0]
loading "banana.all.txt"..  
examples: 4000   features: 2
set cache size 256
..0..100..200..300..400..500..600..700..800..900..1000..1100..1200..1300..1400..1500..1600..1700..1800..1900..2000..2100..2200..2300..2400..2500..2600..2700..2800..2900..3000..3100..3200..3300..3400..3500..3600..3700..3800..3900..[finishing]
nSVs=848
||w||^2=260935
kcalcs=6843445

la test
_______
loading model: 848 svs
[split file: load:banana.all.txt binary:0 new_indices:1 new_labels:0]
loading "banana.all.txt"..  
examples: 1300   features: 2
accuracy= 89.3846 (1162/1300)

la SVM
______
[split file: load:banana.all.txt binary:0 new_indices:1 new_labels:0]
loading "banana.all.txt"..  
examples: 4000   features: 2
set cache size 256
..0..100..200..300..400..500..600..700..800..900..1000..1100..1200..1300..1400..1500..1600..1700..1800..1900..2000..2100..2200..2300..2400..2500..2600..2700..2800..2900..3000..3100..3200..3300..3400..3500..3600..3700..3800..3900..[finishing]
nSVs=890
||w||^2=273933
kcalcs=6651434

la test
_______
loading model: 890 svs
[split file: load:banana.all.txt binary:0 new_indices:1 new_labels:0]
loading "banana.all.txt"..  
examples: 1300   features: 2
accuracy= 91 (1183/1300)

la SVM
______
[split file: load:banana.all.txt binary:0 new_indices:1 new_labels:0]
loading "banana.all.txt"..  
examples: 4000   features: 2
set cache size 256
..0..100..200..300..400..500..600..700..800..900..1000..1100..1200..1300..1400..1500..1600..1700..1800..1900..2000..2100..2200..2300..2400..2500..2600..2700..2800..2900..3000..3100..3200..3300..3400..3500..3600..3700..3800..3900..[finishing]
nSVs=843
||w||^2=258909
kcalcs=6786801

la test
_______
loading model: 843 svs
[split file: load:banana.all.txt binary:0 new_indices:1 new_labels:0]
loading "banana.all.txt"..  
examples: 1300   features: 2
accuracy= 89.3846 (1162/1300)

la SVM
______
[split file: load:banana.all.txt binary:0 new_indices:1 new_labels:0]
loading "banana.all.txt"..  
examples: 4000   features: 2
set cache size 256
..0..100..200..300..400..500..600..700..800..900..1000..1100..1200..1300..1400..1500..1600..1700..1800..1900..2000..2100..2200..2300..2400..2500..2600..2700..2800..2900..3000..3100..3200..3300..3400..3500..3600..3700..3800..3900..[finishing]
nSVs=879
||w||^2=269236
kcalcs=6972616

la test
_______
loading model: 879 svs
[split file: load:banana.all.txt binary:0 new_indices:1 new_labels:0]
loading "banana.all.txt"..  
examples: 1300   features: 2
accuracy= 90.3077 (1174/1300)

la SVM
______
[split file: load:banana.all.txt binary:0 new_indices:1 new_labels:0]
loading "banana.all.txt"..  
examples: 4000   features: 2
set cache size 256
..0..100..200..300..400..500..600..700..800..900..1000..1100..1200..1300..1400..1500..1600..1700..1800..1900..2000..2100..2200..2300..2400..2500..2600..2700..2800..2900..3000..3100..3200..3300..3400..3500..3600..3700..3800..3900..[finishing]
nSVs=889
||w||^2=272194
kcalcs=6561272

la test
_______
loading model: 889 svs
[split file: load:banana.all.txt binary:0 new_indices:1 new_labels:0]
loading "banana.all.txt"..  
examples: 1300   features: 2
accuracy= 90.5385 (1177/1300)

la SVM
______
[split file: load:banana.all.txt binary:0 new_indices:1 new_labels:0]
loading "banana.all.txt"..  
examples: 4000   features: 2
set cache size 256
..0..100..200..300..400..500..600..700..800..900..1000..1100..1200..1300..1400..1500..1600..1700..1800..1900..2000..2100..2200..2300..2400..2500..2600..2700..2800..2900..3000..3100..3200..3300..3400..3500..3600..3700..3800..3900..[finishing]
nSVs=894
||w||^2=274016
kcalcs=6891409

la test
_______
loading model: 894 svs
[split file: load:banana.all.txt binary:0 new_indices:1 new_labels:0]
loading "banana.all.txt"..  
examples: 1300   features: 2
accuracy= 90.6154 (1178/1300)

la SVM
______
[split file: load:banana.all.txt binary:0 new_indices:1 new_labels:0]
loading "banana.all.txt"..  
examples: 4000   features: 2
set cache size 256
..0..100..200..300..400..500..600..700..800..900..1000..1100..1200..1300..1400..1500..1600..1700..1800..1900..2000..2100..2200..2300..2400..2500..2600..2700..2800..2900..3000..3100..3200..3300..3400..3500..3600..3700..3800..3900..[finishing]
nSVs=817
||w||^2=250543
kcalcs=6640760

la test
_______
loading model: 817 svs
[split file: load:banana.all.txt binary:0 new_indices:1 new_labels:0]
loading "banana.all.txt"..  
examples: 1300   features: 2
accuracy= 87.8462 (1142/1300)

la SVM
______
[split file: load:banana.all.txt binary:0 new_indices:1 new_labels:0]
loading "banana.all.txt"..  
examples: 4000   features: 2
set cache size 256
..0..100..200..300..400..500..600..700..800..900..1000..1100..1200..1300..1400..1500..1600..1700..1800..1900..2000..2100..2200..2300..2400..2500..2600..2700..2800..2900..3000..3100..3200..3300..3400..3500..3600..3700..3800..3900..[finishing]
nSVs=887
||w||^2=272144
kcalcs=6834416

la test
_______
loading model: 887 svs
[split file: load:banana.all.txt binary:0 new_indices:1 new_labels:0]
loading "banana.all.txt"..  
examples: 1300   features: 2
accuracy= 90.7692 (1180/1300)

la SVM
______
[split file: load:banana.all.txt binary:0 new_indices:1 new_labels:0]
loading "banana.all.txt"..  
examples: 4000   features: 2
set cache size 256
..0..100..200..300..400..500..600..700..800..900..1000..1100..1200..1300..1400..1500..1600..1700..1800..1900..2000..2100..2200..2300..2400..2500..2600..2700..2800..2900..3000..3100..3200..3300..3400..3500..3600..3700..3800..3900..[finishing]
nSVs=871
||w||^2=268510
kcalcs=7028411

la test
_______
loading model: 871 svs
[split file: load:banana.all.txt binary:0 new_indices:1 new_labels:0]
loading "banana.all.txt"..  
examples: 1300   features: 2
accuracy= 90.3077 (1174/1300)
